{
  "culinary": [
    {
      "productId": "CFA-1001809",
      "productName": "CFA-1001809 004 JUN2 MOLLY MOON",
      "menu": "Salted Caramel Ice Cream  - Balsamic Strawberry Ice Cream  - Deep, Dark Hot Fudge - Rhubarb Rose Compote",
      "shortMenu": null,
      "notes": null,
      "vendorStyleNumber": "04 AUG2",
      "departmentId": "10",
      "departmentName": "COOKING SCHOOL",
      "classId": "4",
      "className": "CULINARY- STORE 4",
      "divisionId": "5",
      "divisionName": "OTHER",
      "classDescription": "We all scream for ice cream, especially when it’s made by Seattle-based Molly Moon’s Homemade Ice Cream. Known for using high-quality, local, in-season ingredients, Molly Moon’s premium ice cream is an iconic favorite treasured by children and adults alike who line up around the block for a scoop of her famous flavors. Come and learn from Molly herself as she let’s you in on her delectable secrets and demonstrates how to make an array of sweet delights that made her frosty treats shop into a chain of local hot spots.",
      "classRestrictionMessage": "Ages 10 and Older",
      "classImageUrl": null,
      "productUrl": "www.surlatable.com/product/CFA-1001809",
      "type": null,
      "classType": "Demo",
      "cuisineFilter": null,
      "classTags": null,
      "reportingClassType": null,
      "reportingClassPgm": null,
      "isClassCancelled": null,
      "webShortDescription": "Fantastic Homemade Ice Cream with Molly Moon",
      "classLength": null,
      "classLevel": null,
      "classSubType": null,
      "bbCompanyId": null,
      "bbEventGroupId": null,
      "culinaryEvents": [
        {
          "storeId": "101",
          "bbEventChainId": 1,
          "month": null,
          "year": null,
          "date": null,
          "dateFilter": null,
          "dateAndTime": null,
          "isCourse": null,
          "taxClassID": null,
          "onlineFlag": null,
          "onlineFrom": null,
          "onlineTo": null,
          "searchableFlag": null
        },
        {
          "storeId": "101",
          "bbEventChainId": 2,
          "month": null,
          "year": null,
          "date": null,
          "dateFilter": null,
          "dateAndTime": null,
          "isCourse": null,
          "taxClassID": null,
          "onlineFlag": null,
          "onlineFrom": null,
          "onlineTo": null,
          "searchableFlag": null
        },
        {
          "storeId": "102",
          "bbEventChainId": 2,
          "month": null,
          "year": null,
          "date": null,
          "dateFilter": null,
          "dateAndTime": null,
          "isCourse": null,
          "taxClassID": null,
          "onlineFlag": null,
          "onlineFrom": null,
          "onlineTo": null,
          "searchableFlag": null
        }
      ]
    }
  ]
}
