{
  "storeId": "4",
  "name": "KIRKLAND",
  "channel": "STRS",
  "district": "NW",
  "type": "STREET",
  "isCulinary": true,
  "openDate": "1999-09-02",
  "closeDate": null,
  "address": {
    "address1": "90 CENTRAL WAY",
    "address2": null,
    "city": "KIRKLAND",
    "state": "WA",
    "county": null,
    "postalCode": "98033",
    "country": "US"
  },
  "phone": "425-827-1311",
  "fob": "1111111",
  "latitude": 47.6765735,
  "longitude": -122.2086608,
  "email": "slt004@surlatable.com",
  "culinaryEmail": "Cooking004@surlatable.com",
  "fax": "425-827-9561",
  "title": "Kirkland",
  "culinaryPhone": "425-827-5541 ",
  "hours": [
    {
      "title": "Holiday",
      "description": "Call store for holiday hours"
    },
    {
      "title": "Mon-Sat",
      "description": "9:30am - 9pm"
    },
    {
      "title": "Sun",
      "description": "11am - 6pm"
    }
  ]
}