{
  "products": [
    {
      "productId": "PRO-656488",
      "productName": "<lt/>em<gt/>My New Orleans: The Cookbook<lt/>/em<gt/> by John Besh, Autographed",
      "careAndUsage": "Moo Baa La La La",
      "classId": "2000",
      "className": "MISC BOOKS",
      "colorGroup": null,
      "countryOfOrigin": null,
      "departmentId": "2",
      "departmentName": "BOOKS",
      "divisionId": "4",
      "divisionName": "SPECIALTY",
      "dropShipMessage": null,
      "featuresText": "<lt/>ul<gt/>\n<lt/>li<gt/>Publisher: Andrews McMeel<lt/>/li<gt/>\n<lt/>li<gt/>Pages: 384 pages<lt/>/li<gt/>\n<lt/>li<gt/>Material: Hardcover<lt/>/li<gt/>\n<lt/>/ul<gt/>\n\n<lt/>Step-by-step instructions to prepare legendary local favorites.<lt/>/li<gt/>\n<lt/>li<gt/>Learn how to blend traditional French techniques with southern Louisiana ingredients.<lt/>/li<gt/> \n<lt/>li<gt/>Bookplate is signed by the author.<lt/>/li<gt/>\n<lt/>/ul<gt/>\n",
      "isAssigned": false,
      "isDisallowRecommendation": false,
      "isDishwasherSafe": null,
      "isDropShip": false,
      "isExclusive": false,
      "isFoodSafe": null,
      "isFreezerSafe": null,
      "isHandWashOnly": null,
      "isHazMat": false,
      "isLimitedEdition": false,
      "isMicrowaveSafe": null,
      "isNew": false,
      "isOvenSafe": null,
      "isPrivateLabel": false,
      "isProp65Mat": null,
      "isWebOnly": false,
      "isWebSkuActive": false,
      "ipDescription": null,
      "keywords": "book,books,cookbook,cookbooks,, book,books,cookbook,cookbooks,",
      "onlineFrom": "2009/06/22 17:30:00",
      "onlineTo": "2039/06/22 17:30:00",
      "onSale": null,
      "pageTitle": "My New Orleans: The Cookbook by John Besh, Autographed",
      "productDescription": "This book will change the way you look at this area. Also available in select stores.",
      "productHeadline": "Moo Baa La La La",
      "productHeight": "11",
      "productLength": "9.7",
      "productUrl": "www.surlatable.com/product/PRO-656488",
      "productWeight": null,
      "productWidth": "1.6",
      "reviewRating": null,
      "specifications": "Hiya Kids",
      "vendorName": "SIMON AND SCHUSTER-MCMEEL",
      "vendorNumber": null,
      "vendorStyleNumber": "978-0740784132",
      "warranty": null,
      "whatsInBox": "Moo Baa La La La",
      "webBrand": null,
      "webShortDescription": "<lt/>em<gt/>My New Orleans: The Cookbook<lt/>/em<gt/> by John Besh, Autographed",
      "youtubeVideoIds": null,
      "classificationReferences": [],
      "childSkus": [
        "656488"
      ],
      "childSkuDetails": [
        {
          "skuId": "4638680",
          "productId": "PRO-4638680",
          "skuName": "4638680 KN CHEF 6\" HIB",
          "actualCost": null,
          "additionalShippingCharges": null,
          "classId": "1110",
          "className": "CHEF KNIFE",
          "concept": "1",
          "countryOfManufacture": null,
          "countryOfOrigin": "Japan",
          "departmentId": "1",
          "departmentName": "KNIVES",
          "divisionId": "1",
          "divisionName": "CORE",
          "giftRegistry": "None",
          "giftWrapPrice": 5,
          "gtin": "00035886412623",
          "gtinType": "1",
          "imageUrl": null,
          "ipActive": null,
          "isAssigned": true,
          "isDropShip": false,
          "isGiftWrap": true,
          "isHazMat": false,
          "isItemSet": false,
          "isKit": false,
          "isProp65Mat": false,
          "isWebOnly": false,
          "isWebSkuActive": true,
          "itemDescription": "KN CHEF 6\" HIB",
          "lastVendorCost": null,
          "isDisallowPosOrder": false,
          "productHeight": null,
          "productLength": "11.25\"",
          "productWeight": null,
          "productWidth": null,
          "retailPrice": 169.95,
          "season": "None",
          "sellRights": null,
          "sfsEligible": "SFS1",
          "isBrokerEligible": true,
          "skuType": null,
          "isSoldOut": false,
          "status": "ONGOING",
          "style": null,
          "subDepartmentId": "111",
          "subDepartmentName": "CHEF KNIFE",
          "vendorId": "220",
          "vendorName": "JA HENCKELS",
          "vendorStyle": "54481-163",
          "webBrand": "Miyabi",
          "webMaterial": null,
          "webPrice": null,
          "webShortDescription": "Miyabi Hibana Chef&#8217;s Knife",
          "valuedCost": null,
          "holiday": "HANUKKAH",
          "collection": "Hibana",
          "rawIP": null
        },
        {
          "skuId": "4638672",
          "productId": "PRO-4638680",
          "skuName": "4638672 KN CHEF 8\" HIB",
          "actualCost": null,
          "additionalShippingCharges": null,
          "classId": "1110",
          "className": "CHEF KNIFE",
          "concept": "1",
          "countryOfManufacture": null,
          "countryOfOrigin": "Japan",
          "departmentId": "1",
          "departmentName": "KNIVES",
          "divisionId": "1",
          "divisionName": "CORE",
          "giftRegistry": "None",
          "giftWrapPrice": 5,
          "gtin": "00035886413316",
          "gtinType": "1",
          "imageUrl": null,
          "ipActive": null,
          "isAssigned": true,
          "isDropShip": false,
          "isGiftWrap": true,
          "isHazMat": false,
          "isItemSet": false,
          "isKit": false,
          "isProp65Mat": false,
          "isWebOnly": false,
          "isWebSkuActive": true,
          "itemDescription": "KN CHEF 8\" HIB",
          "lastVendorCost": null,
          "isDisallowPosOrder": false,
          "productHeight": null,
          "productHeadLine": null,
          "productLength": "11.25\"",
          "productWeight": null,
          "productWidth": null,
          "retailPrice": 149.96,
          "season": "None",
          "sellRights": null,
          "sfsEligible": "SFS1",
          "isBrokerEligible": true,
          "skuType": null,
          "isSoldOut": false,
          "status": "ONGOING",
          "style": null,
          "subDepartmentId": "111",
          "subDepartmentName": "CHEF KNIFE",
          "vendorId": "220",
          "vendorName": "JA HENCKELS",
          "vendorStyle": "54481-203",
          "webBrand": "Miyabi",
          "webMaterial": null,
          "webPrice": null,
          "webShortDescription": "Miyabi Hibana Chef&#8217;s Knife",
          "valuedCost": null,
          "holiday": "HANUKKAH",
          "collection": "Hibana",
          "rawIP": null
        }
      ],
      "images": {
        "images": [
          {
            "id": "656488_03",
            "title": "Alternate Image 2",
            "type": "large"
          },
          {
            "id": "656488_02",
            "title": "Alternate Image 1",
            "type": "large"
          }
        ],
        "primaryImage": "656488_01"
      }
    }
  ]
}